Portfolio Development and Planning – Kate OBrien’s ePortfolio
…
ℹ Use `spec()` to retrieve the full column specification for this data.
ℹ Specify the column types or set `show_col_types = FALSE` to quiet this message.

Warning in inner_join(np_obs_year, nps_species_clean, join_by(scientific_name == : Detected an unexpected many-to-many relationship between `x` and `y`.
ℹ Row 18 of `x` matches multiple rows in `y`.
ℹ Row 118 of `y` matches multiple rows in `x`.
ℹ If a many-to-many relationship is expected, set `relationship =
  "many-to-many"` to silence this warning.

# A tibble: 90 × 2
   SciName                   n
   <chr>                 <int>
 1 Accipiter gentilis        1
 2 Aechmophorus clarkii      1
 3 Ammodramus savannarum     1
 4 Anas acuta                1
 5 Anas crecca               1
 6 Anas platyrhynchos        1
 7 Ardea alba                1
 8 Artemisiospiza belli      1
 9 Asio flammeus             1
10 Aythya collaris           1
# ℹ 80 more rows

# A tibble: 199 × 2
   scientific_name                   n
   <chr>                         <int>
 1 Accipiter striatus                7
 2 Actitis macularius               49
 3 Aegolius acadicus                 4
 4 Aeronautes saxatalis             27
 5 Agelaius phoeniceus             110
 6 Agelaius tricolor                 1
 7 Aix sponsa                       76
 8 Anas crecca                       6
 9 Anas platyrhynchos              186
10 Anas platyrhynchos domesticus     1
# ℹ 189 more rows
…
